"0x213ABC"
"0x00000_0000000000"
"0b0101010111111010"
"0b00111"
"false"
"true"
"else"
"and"
"fun"
"for"
"while"
"loop"
"if"
"or"
"as"
"in"
"print"
"return"
"super"
"this"
"class"
"var"
"break"
"continue"
"match"
"nil"
"const"
"Math.abs"
"Math.log"
"Math.PI"
"Math.E"
"Math.sin"
"Math.cos"
"Math.exp"
"Math.random"

